<?xml version="1.0" encoding="UTF-8" standalone="no"?>
<!-- Created with Inkscape (http://www.inkscape.org/) -->

<svg
   width="62.564384mm"
   height="13.537582mm"
   viewBox="0 0 62.564384 13.537582"
   version="1.1"
   id="svg8311"
   inkscape:version="1.2.1 (0f2f062aeb, 2022-09-21, custom)"
   sodipodi:docname="american-vial-n.svg"
   inkscape:dataloss="true"
   inkscape:export-filename="american-vial-n.svg"
   inkscape:export-xdpi="96"
   inkscape:export-ydpi="96"
   xmlns:inkscape="http://www.inkscape.org/namespaces/inkscape"
   xmlns:sodipodi="http://sodipodi.sourceforge.net/DTD/sodipodi-0.dtd"
   xmlns="http://www.w3.org/2000/svg"
   xmlns:svg="http://www.w3.org/2000/svg">
  <sodipodi:namedview
     id="namedview8313"
     pagecolor="#ffffff"
     bordercolor="#666666"
     borderopacity="1.0"
     inkscape:showpageshadow="2"
     inkscape:pageopacity="0.0"
     inkscape:pagecheckerboard="0"
     inkscape:deskcolor="#d1d1d1"
     inkscape:document-units="mm"
     showgrid="false"
     inkscape:zoom="1.6819304"
     inkscape:cx="519.641"
     inkscape:cy="545.50414"
     inkscape:window-width="1860"
     inkscape:window-height="1136"
     inkscape:window-x="60"
     inkscape:window-y="27"
     inkscape:window-maximized="1"
     inkscape:current-layer="layer1" />
  <defs
     id="defs8308" />
  <g
     inkscape:label="Layer 1"
     inkscape:groupmode="layer"
     id="layer1"
     transform="translate(-76.177439,-122.55082)">
    <polygon
       class="cls-102"
       points="2269.19,2919.28 2273.72,2912.26 2287.38,2912.39 2277.45,2897.82 2261.3,2919.21 2250.24,2919.11 2277.42,2881.81 2304.26,2919.61 "
       id="polygon1492"
       style="fill:#fabf19"
       transform="matrix(0.26458333,0,0,0.26458333,-519.19855,-639.92806)" />
    <polygon
       class="cls-4"
       points="2312.67,2882.14 2308.13,2889.16 2294.48,2889.03 2304.41,2903.6 2320.55,2882.21 2331.61,2882.31 2304.43,2919.61 2277.59,2881.81 "
       id="polygon1494"
       style="fill:#ffffff"
       transform="matrix(0.26458333,0,0,0.26458333,-519.19855,-639.92806)" />
    <polygon
       class="cls-102"
       points="2445.24,2910.52 2440,2902.97 2436.32,2902.94 2445.13,2916.09 2454.3,2903.1 2444.03,2903.01 2445.49,2905.48 2448.63,2905.51 "
       id="polygon1496"
       transform="matrix(0.26457285,-0.00235459,0.00235459,0.26457285,-526.09839,-634.44966)"
       style="fill:#fabf19" />
    <polygon
       class="cls-4"
       points="2321.53,2914.95 2323.01,2912.5 2327.47,2912.55 2324.23,2907.47 2318.95,2914.93 2315.33,2914.89 2324.22,2901.9 2332.99,2915.05 "
       id="polygon1498"
       style="fill:#ffffff"
       transform="matrix(0.26458333,0,0,0.26458333,-519.19855,-639.92806)" />
    <polygon
       class="cls-102"
       points="2479.69,2914.09 2486.34,2914.15 2486.32,2916.63 2476.25,2916.54 2476.37,2903.13 2479.8,2903.16 "
       id="polygon1502"
       transform="matrix(0.26457285,-0.00235459,0.00235459,0.26457285,-526.09839,-634.44966)"
       style="fill:#fabf19" />
    <polygon
       class="cls-4"
       points="2338.19,2915.33 2334.81,2915.3 2334.94,2901.95 2340.02,2901.99 2343.77,2911.21 2343.82,2911.21 2347.54,2902.06 2352.62,2902.11 2352.49,2915.46 2349.11,2915.43 2349.2,2905.97 2349.16,2905.97 2345.05,2915.39 2342.26,2915.37 2338.32,2905.96 2338.28,2905.96 "
       id="polygon1504"
       transform="matrix(0.26457285,-0.00235459,0.00235459,0.26457285,-526.09839,-634.44966)"
       style="fill:#ffffff" />
    <polygon
       class="cls-4"
       points="2365.9,2904.7 2357.72,2904.62 2357.7,2907.49 2365.2,2907.55 2365.18,2909.84 2357.68,2909.77 2357.65,2913.04 2365.99,2913.11 2365.97,2915.59 2354.22,2915.48 2354.34,2902.12 2365.92,2902.23 "
       id="polygon1506"
       transform="matrix(0.26457285,-0.00235459,0.00235459,0.26457285,-526.09839,-634.44966)"
       style="fill:#ffffff" />
    <path
       class="cls-4"
       d="m 106.98709,127.83088 h 2.28608 a 1.7092083,1.7092083 0 0 1 0.51133,0.0748 1.1535833,1.1535833 0 0 1 0.39613,0.2108 1.000125,1.000125 0 0 1 0.24884,0.31265 0.86783332,0.86783332 0 0 1 0.0854,0.37762 0.90222916,0.90222916 0 0 1 -0.16447,0.54652 0.98424999,0.98424999 0 0 1 -0.50766,0.33793 v 0 a 0.68262499,0.68262499 0 0 1 0.45503,0.28964 1.1985625,1.1985625 0 0 1 0.16346,0.52773 c 0,0 0,0.0529 0,0.11642 a 3.889375,3.889375 0 0 0 0.0515,0.43082 0.62706249,0.62706249 0 0 0 0.12162,0.28731 l -0.9313,0.008 a 0.67468749,0.67468749 0 0 1 -0.0734,-0.2269 c -0.014,-0.0872 -0.0282,-0.1982 -0.04,-0.33303 -0.0119,-0.13484 -0.023,-0.21942 -0.0343,-0.28811 a 0.63499999,0.63499999 0 0 0 -0.20474,-0.4083 0.81491666,0.81491666 0 0 0 -0.5012,-0.12518 l -0.93392,0.008 0.0122,1.38108 -0.93131,0.008 z m 0.93234,1.59779 1.02126,-0.009 a 0.79374999,0.79374999 0 0 0 0.48048,-0.1207 0.44185416,0.44185416 0 0 0 0.16063,-0.3851 0.42597916,0.42597916 0 0 0 -0.15941,-0.36901 0.79374999,0.79374999 0 0 0 -0.47998,-0.1201 l -1.02124,0.009 z"
       id="path1508"
       style="fill:#ffffff;stroke-width:0.264583" />
    <rect
       class="cls-4"
       x="-131.22273"
       y="111.10735"
       width="3.5323641"
       height="0.93402582"
       transform="rotate(-89.936956)"
       id="rect1510"
       style="fill:#ffffff;stroke-width:0.264597" />
    <rect
       class="cls-102"
       x="-131.34669"
       y="130.32654"
       width="3.5321875"
       height="0.93397915"
       transform="rotate(-89.979895)"
       id="rect1512"
       style="fill:#fabf19;stroke-width:0.264583" />
    <path
       class="cls-4"
       d="m 115.26598,128.99285 a 0.63764583,0.63764583 0 0 0 -0.32401,-0.43103 1.1668125,1.1668125 0 0 0 -0.64714,-0.17418 1.397,1.397 0 0 0 -0.54952,0.0949 1.0027708,1.0027708 0 0 0 -0.37864,0.26797 1.0795,1.0795 0 0 0 -0.21096,0.37759 1.4710833,1.4710833 0 0 0 -0.0701,0.45045 1.3626041,1.3626041 0 0 0 0.07,0.43067 1.0265833,1.0265833 0 0 0 0.21497,0.37115 1.0027708,1.0027708 0 0 0 0.37539,0.26125 1.4790208,1.4790208 0 0 0 0.54853,0.093 1.0742083,1.0742083 0 0 0 0.69403,-0.20992 0.87047916,0.87047916 0 0 0 0.31515,-0.56375 l 0.94451,-0.008 a 1.4234583,1.4234583 0 0 1 -0.19328,0.58118 1.4499166,1.4499166 0 0 1 -0.41407,0.4482 1.9817291,1.9817291 0 0 1 -0.60071,0.28583 2.6775833,2.6775833 0 0 1 -0.74795,0.0966 2.8178125,2.8178125 0 0 1 -0.91144,-0.1374 1.9658541,1.9658541 0 0 1 -0.68868,-0.38282 1.651,1.651 0 0 1 -0.58288,-1.27545 1.7594791,1.7594791 0 0 1 0.14973,-0.71573 1.6695208,1.6695208 0 0 1 0.43404,-0.58332 2.0134791,2.0134791 0 0 1 0.6898,-0.38717 2.8310416,2.8310416 0 0 1 0.91162,-0.13777 2.7992916,2.7992916 0 0 1 0.69662,0.0838 2.0214166,2.0214166 0 0 1 0.58955,0.24082 1.4393333,1.4393333 0 0 1 0.4242,0.39312 1.2170833,1.2170833 0 0 1 0.20842,0.52734 z"
       id="path1514"
       style="fill:#ffffff;stroke-width:0.264583" />
    <path
       class="cls-4"
       d="m 117.6476,127.83392 0.93392,-0.008 1.55009,3.51853 -0.94718,0.008 -0.31131,-0.79102 -1.55054,-0.003 -0.32641,0.78346 -0.92337,0.008 z m -0.0866,2.15985 1.07416,-0.01 -0.52216,-1.29188 -0.0132,1.3e-4 z"
       id="path1516"
       style="fill:#ffffff;stroke-width:0.264583" />
    <path
       class="cls-102"
       d="m 133.0867,127.8394 0.93657,-0.008 1.55011,3.52118 -0.94718,0.008 -0.31395,-0.79097 h -1.55051 l -0.32642,0.78345 -0.92337,0.008 z m -0.0866,2.15984 1.07416,-0.01 -0.52216,-1.29188 -0.0132,1.3e-4 z"
       id="path1518"
       style="fill:#fabf19;stroke-width:0.264583" />
    <polygon
       class="cls-4"
       points="2428.15,2911.73 2428.19,2911.73 2428.27,2902.81 2431.63,2902.84 2431.51,2916.14 2427.92,2916.11 2421.22,2907.14 2421.18,2907.14 2421.09,2916.05 2417.74,2916.01 2417.86,2902.71 2421.42,2902.74 "
       id="polygon1520"
       transform="matrix(0.26457285,-0.00235459,0.00235459,0.26457285,-526.09839,-634.44966)"
       style="fill:#ffffff" />
    <polygon
       class="cls-102"
       points="2447.88,2926.47 2442.7,2926.42 2442.68,2928.23 2447.43,2928.28 2447.42,2929.72 2442.66,2929.68 2442.65,2931.75 2447.94,2931.8 2447.92,2933.37 2440.47,2933.3 2440.55,2924.83 2447.89,2924.9 "
       id="polygon1524"
       transform="matrix(0.26458333,0,0,0.26458333,-519.23236,-640.05886)"
       style="fill:#fabf19" />
    <path
       class="cls-102"
       d="m 121.37994,133.83552 1.44992,0.0159 a 1.0583333,1.0583333 0 0 1 0.32279,0.0476 0.77787499,0.77787499 0 0 1 0.24871,0.13758 0.61647916,0.61647916 0 0 1 0.1561,0.19844 0.56356249,0.56356249 0 0 1 0.0529,0.24077 0.58208333,0.58208333 0 0 1 -0.10848,0.3466 0.61647916,0.61647916 0 0 1 -0.32279,0.20902 v 0 a 0.42862499,0.42862499 0 0 1 0.28575,0.18521 0.72760416,0.72760416 0 0 1 0.10054,0.34131 c 0,0 0,0.0344 0,0.0767 0,0.10584 0.0159,0.1958 0.0291,0.26459 a 0.38629166,0.38629166 0 0 0 0.0767,0.18256 h -0.59267 a 0.46831249,0.46831249 0 0 1 -0.045,-0.14552 c 0,-0.0529 -0.0159,-0.12436 -0.0212,-0.20902 -0.005,-0.0847 -0.0159,-0.14023 -0.0212,-0.18256 a 0.396875,0.396875 0 0 0 -0.127,-0.26459 0.52916666,0.52916666 0 0 0 -0.3175,-0.082 h -0.59267 v 0.87577 h -0.59002 z m 0.58209,1.01864 h 0.64558 a 0.52916666,0.52916666 0 0 0 0.30692,-0.0741 0.28310416,0.28310416 0 0 0 0.10318,-0.24342 0.26458333,0.26458333 0 0 0 -0.0979,-0.23548 0.52916666,0.52916666 0 0 0 -0.30692,-0.0794 h -0.64558 z"
       id="path1526"
       style="fill:#fabf19;stroke-width:0.264583" />
    <path
       class="cls-102"
       d="m 130.59099,134.57857 a 0.40216666,0.40216666 0 0 0 -0.20373,-0.26458 0.74877082,0.74877082 0 0 0 -0.40746,-0.11377 0.90222916,0.90222916 0 0 0 -0.35189,0.0582 0.62706249,0.62706249 0 0 0 -0.23813,0.16404 0.66939582,0.66939582 0 0 0 -0.13758,0.23812 0.90752082,0.90752082 0 0 0 -0.045,0.28311 0.84402082,0.84402082 0 0 0 0.0397,0.26458 0.71172916,0.71172916 0 0 0 0.13493,0.23813 0.62706249,0.62706249 0 0 0 0.23813,0.16404 0.84931249,0.84931249 0 0 0 0.34396,0.0635 0.65616666,0.65616666 0 0 0 0.44185,-0.12965 0.55562499,0.55562499 0 0 0 0.20373,-0.35454 h 0.59796 a 0.92074999,0.92074999 0 0 1 -0.12436,0.36777 0.95249999,0.95249999 0 0 1 -0.26458,0.28046 1.2461875,1.2461875 0 0 1 -0.38365,0.17727 1.5875,1.5875 0 0 1 -0.4736,0.0582 1.793875,1.793875 0 0 1 -0.57679,-0.0926 1.2514792,1.2514792 0 0 1 -0.43656,-0.24606 1.0345208,1.0345208 0 0 1 -0.26459,-0.36512 1.0583333,1.0583333 0 0 1 -0.0926,-0.44715 1.1297708,1.1297708 0 0 1 0.10054,-0.45244 1.0424583,1.0424583 0 0 1 0.26458,-0.36777 1.2567708,1.2567708 0 0 1 0.43921,-0.24077 1.7541875,1.7541875 0 0 1 0.57944,-0.082 1.7145,1.7145 0 0 1 0.44185,0.0556 1.3229166,1.3229166 0 0 1 0.37042,0.15611 0.93662499,0.93662499 0 0 1 0.26458,0.25135 0.79374999,0.79374999 0 0 1 0.12965,0.33602 z"
       id="path1528"
       style="fill:#fabf19;stroke-width:0.264583" />
    <path
       class="cls-102"
       d="m 119.57234,133.82742 h 0.59266 l 0.96044,2.24102 h -0.59796 l -0.19579,-0.50006 h -0.9816 l -0.21167,0.49477 h -0.58473 z m -0.0688,1.3679 h 0.67998 l -0.32279,-0.82286 v 0 z"
       id="path1530"
       style="fill:#fabf19;stroke-width:0.264583" />
    <path
       class="cls-102"
       d="m 123.92957,133.85055 h 1.44992 a 1.1165417,1.1165417 0 0 1 0.32279,0.0503 0.72495832,0.72495832 0 0 1 0.24871,0.13493 0.56885416,0.56885416 0 0 1 0.1561,0.20109 0.52916666,0.52916666 0 0 1 0.0529,0.24077 0.57149999,0.57149999 0 0 1 -0.10583,0.34396 0.61118749,0.61118749 0 0 1 -0.32544,0.21166 v 0 a 0.43391666,0.43391666 0 0 1 0.2884,0.18521 0.77258332,0.77258332 0 0 1 0.10054,0.34131 0.42597916,0.42597916 0 0 0 0,0.0767 2.2674791,2.2674791 0 0 0 0.0291,0.26459 0.41010416,0.41010416 0 0 0 0.0741,0.18256 h -0.59002 a 0.46831249,0.46831249 0 0 1 -0.045,-0.14552 c 0,-0.0556 -0.0159,-0.12436 -0.0238,-0.20902 a 1.5266458,1.5266458 0 0 0 -0.0212,-0.18257 0.396875,0.396875 0 0 0 -0.127,-0.26458 0.50799999,0.50799999 0 0 0 -0.3175,-0.082 h -0.59002 v 0.87577 h -0.59267 z m 0.58209,1.01864 h 0.64823 a 0.47095833,0.47095833 0 0 0 0.30427,-0.0741 0.28575,0.28575 0 0 0 0.10583,-0.24077 0.2778125,0.2778125 0 0 0 -0.10054,-0.23548 0.50270833,0.50270833 0 0 0 -0.30427,-0.0794 h -0.64823 z"
       id="path1532"
       style="fill:#fabf19;stroke-width:0.264583" />
    <rect
       class="cls-102"
       x="-134.86156"
       y="132.63354"
       width="2.2410209"
       height="0.59266669"
       transform="rotate(-89.469999)"
       id="rect1534"
       style="fill:#fabf19;stroke-width:0.264583" />
    <polygon
       class="cls-102"
       points="2470.4,2925.01 2477.74,2925.07 2477.72,2926.64 2472.54,2926.59 2472.53,2928.41 2477.28,2928.45 2477.27,2929.9 2472.51,2929.85 2472.49,2931.93 2477.78,2931.97 2477.77,2933.54 2470.32,2933.47 "
       id="polygon1536"
       transform="matrix(0.26458333,0,0,0.26458333,-519.12988,-640.08236)"
       style="fill:#fabf19" />
    <polygon
       class="cls-102"
       points="2469.84,2925.1 2469.83,2926.67 2464.64,2926.62 2464.63,2928.43 2469.38,2928.48 2469.37,2929.93 2464.61,2929.88 2464.59,2931.95 2464.57,2933.52 2462.42,2933.5 2462.5,2925.04 "
       id="polygon1538"
       transform="matrix(0.26458333,0,0,0.26458333,-519.18886,-640.08376)"
       style="fill:#fabf19" />
    <path
       class="cls-102"
       d="m 137.74884,136.08635 a 1.3229166,1.3229166 0 0 1 -0.81492,-0.22489 0.72231249,0.72231249 0 0 1 -0.29368,-0.56356 v -0.11907 h 0.55298 v 0.10319 a 0.2936875,0.2936875 0 0 0 0.15081,0.24342 0.79374999,0.79374999 0 0 0 0.38894,0.09 0.67733332,0.67733332 0 0 0 0.33602,-0.0661 0.16139583,0.16139583 0 0 0 0.0979,-0.15081 0.127,0.127 0 0 0 -0.0873,-0.13494 2.4579791,2.4579791 0 0 0 -0.52917,-0.14023 1.5213541,1.5213541 0 0 1 -0.62441,-0.23019 0.50799999,0.50799999 0 0 1 -0.21167,-0.42862 0.56620833,0.56620833 0 0 1 0.26458,-0.48154 1.1773958,1.1773958 0 0 1 0.67734,-0.17198 1.2885208,1.2885208 0 0 1 0.70643,0.18521 0.63764583,0.63764583 0 0 1 0.30163,0.52916 v 0.11906 h -0.55563 l -0.0132,-0.10318 c -0.0132,-0.11907 -0.0767,-0.26459 -0.43657,-0.26459 a 0.63764583,0.63764583 0 0 0 -0.3175,0.0609 0.12964583,0.12964583 0 0 0 -0.082,0.12171 0.09260417,0.09260417 0 0 0 0.0503,0.0899 1.4710833,1.4710833 0 0 0 0.37307,0.10848 4.4158958,4.4158958 0 0 1 0.5027,0.12171 0.93662499,0.93662499 0 0 1 0.35984,0.20902 0.52916666,0.52916666 0 0 1 0.16139,0.39952 0.61118749,0.61118749 0 0 1 -0.29104,0.508 1.1853333,1.1853333 0 0 1 -0.66675,0.1905 z"
       id="path1540"
       style="fill:#fabf19;stroke-width:0.264583" />
    <path
       style="fill:none;stroke:#ffffff;stroke-width:0.529167;stroke-linecap:butt;stroke-linejoin:miter;stroke-dasharray:none;stroke-opacity:1"
       d="M 93.351676,132.56081 H 138.74182"
       id="path4751" />
  </g>
</svg>
